ex-2/lab7/v0/test-ex2-1-check5.log
# vsim -assertdebug -coverage -c test_ex2_1 -l test-ex2-1-check5.log -do " run -all; quit" 
# Start time: 00:43:57 on Feb 11,2015
# ** Note: (vsim-3813) Design is being optimized due to module recompilation...
# ** Note: (vopt-143) Recognized 1 FSM in module "ex2_1(fast)".
# //  Questa Sim
# //  Version 10.3c_2 linux Sep 24 2014
# //
# //  Copyright 1991-2014 Mentor Graphics Corporation
# //  All Rights Reserved.
# //
# //  THIS WORK CONTAINS TRADE SECRET AND PROPRIETARY INFORMATION
# //  WHICH IS THE PROPERTY OF MENTOR GRAPHICS CORPORATION OR ITS
# //  LICENSORS AND IS SUBJECT TO LICENSE TERMS.
# //
# Loading sv_std.std
# Loading work.test_ex2_1(fast)
# Loading work.ex2_1(fast)
# Loading work.ex2_1_property(fast)
#  run -all
#          5  rst=0 clk=1 validi=1 DIN=1 valido=x DOUT=x
#         15  rst=1 clk=1 validi=1 DIN=1 valido=0 DOUT=0
#         15  		RESET CHECK PASS:: rst_=1 data_out=0 
# 
#         25  rst=0 clk=1 validi=1 DIN=1 valido=0 DOUT=0
#         35  rst=0 clk=1 validi=0 DIN=2 valido=0 DOUT=0
#         35  	VALIDO_ASSERTED CHECK FAIL
#         45  rst=0 clk=1 validi=1 DIN=3 valido=0 DOUT=0
#         55  rst=0 clk=1 validi=0 DIN=4 valido=0 DOUT=0
#         55  	VALIDO_ASSERTED CHECK FAIL
#         65  rst=0 clk=1 validi=1 DIN=5 valido=0 DOUT=0
#         75  rst=0 clk=1 validi=1 DIN=6 valido=1 DOUT=0
#         75  	DOUT CHECK FAIL
#         85  rst=0 clk=1 validi=0 DIN=7 valido=1 DOUT=0
#         85  	VALIDO_ASSERTED CHECK FAIL
#         85  	VALIDO_ASSERTED CHECK FAIL
#         95  rst=0 clk=1 validi=0 DIN=8 valido=1 DOUT=0
#        105  rst=0 clk=1 validi=1 DIN=9 valido=0 DOUT=0
#        115  rst=0 clk=1 validi=1 DIN=10 valido=0 DOUT=0
#        125  rst=0 clk=1 validi=1 DIN=11 valido=0 DOUT=0
#        135  rst=0 clk=1 validi=0 DIN=12 valido=1 DOUT=101
#        135  		VALIDI_ASSERTED CHECK PASS
#        135  		DOUT CHECK PASS
#        135  	VALIDO_ASSERTED CHECK FAIL
#        135  	VALIDO_ASSERTED CHECK FAIL
#        135  	VALIDO_ASSERTED CHECK FAIL
#        145  rst=0 clk=1 validi=1 DIN=13 valido=0 DOUT=101
#        155  rst=0 clk=1 validi=1 DIN=14 valido=0 DOUT=101
#        165  rst=0 clk=1 validi=1 DIN=15 valido=0 DOUT=101
#        175  rst=0 clk=1 validi=1 DIN=16 valido=1 DOUT=197
#        175  		DOUT CHECK PASS
#        175  		VALIDI_ASSERTED CHECK PASS
#        175  	VALIDO_ASSERTED CHECK FAIL
#        185  rst=0 clk=1 validi=1 DIN=17 valido=1 DOUT=197
#        185  		VALIDI_ASSERTED CHECK PASS
#        185  	VALIDO_ASSERTED CHECK FAIL
#        195  rst=0 clk=1 validi=0 DIN=18 valido=1 DOUT=197
#        195  	VALIDO_ASSERTED CHECK FAIL
#        195  	VALIDO_ASSERTED CHECK FAIL
#        195  	VALIDO_ASSERTED CHECK FAIL
#        195  		VALIDI_ASSERTED CHECK PASS
#        205  rst=0 clk=1 validi=1 DIN=19 valido=1 DOUT=197
#        215  rst=0 clk=1 validi=1 DIN=20 valido=1 DOUT=197
#        225  rst=0 clk=1 validi=1 DIN=21 valido=1 DOUT=197
#        235  rst=0 clk=1 validi=1 DIN=22 valido=1 DOUT=401
#        235  		VALIDI_ASSERTED CHECK PASS
#        235  	VALIDO_ASSERTED CHECK FAIL
#        245  rst=0 clk=1 validi=0 DIN=23 valido=1 DOUT=401
#        245  		VALIDI_ASSERTED CHECK PASS
#        245  	VALIDO_ASSERTED CHECK FAIL
#        245  	VALIDO_ASSERTED CHECK FAIL
#        245  	VALIDO_ASSERTED CHECK FAIL
#        255  rst=0 clk=1 validi=0 DIN=24 valido=1 DOUT=401
#        265  rst=0 clk=1 validi=1 DIN=25 valido=0 DOUT=401
#        275  rst=0 clk=1 validi=1 DIN=26 valido=0 DOUT=401
#        285  rst=0 clk=1 validi=1 DIN=27 valido=0 DOUT=401
#        295  rst=0 clk=1 validi=1 DIN=28 valido=1 DOUT=677
#        295  		DOUT CHECK PASS
#        295  		VALIDI_ASSERTED CHECK PASS
#        295  	VALIDO_ASSERTED CHECK FAIL
#        305  rst=0 clk=1 validi=1 DIN=29 valido=1 DOUT=677
#        305  		VALIDI_ASSERTED CHECK PASS
#        305  	VALIDO_ASSERTED CHECK FAIL
#        315  rst=0 clk=1 validi=1 DIN=30 valido=1 DOUT=677
#        315  		VALIDI_ASSERTED CHECK PASS
#        315  	VALIDO_ASSERTED CHECK FAIL
#        325  rst=0 clk=1 validi=0 DIN=31 valido=1 DOUT=842
#        325  		VALIDI_ASSERTED CHECK PASS
#        325  	VALIDO_ASSERTED CHECK FAIL
#        325  	VALIDO_ASSERTED CHECK FAIL
#        325  	VALIDO_ASSERTED CHECK FAIL
#        335  rst=0 clk=1 validi=0 DIN=31 valido=0 DOUT=842
# ** Note: Data structure takes 4816944 bytes of memory
#          Process time 0.02 seconds
#          $finish    : test-ex2-1.sv(28)
#    Time: 335 ns  Iteration: 1  Instance: /test_ex2_1
# End time: 00:43:59 on Feb 11,2015, Elapsed time: 0:00:02
# Errors: 0, Warnings: 0
