ex-1/lab4/test_counter_check3.log
# vsim -assertdebug -coverage -c test_counter -l test_counter_check3.log -do " run -all; quit" 
# Start time: 17:10:53 on Feb 06,2015
# ** Note: (vsim-3812) Design is being optimized...
# //  Questa Sim
# //  Version 10.3c_2 linux Sep 24 2014
# //
# //  Copyright 1991-2014 Mentor Graphics Corporation
# //  All Rights Reserved.
# //
# //  THIS WORK CONTAINS TRADE SECRET AND PROPRIETARY INFORMATION
# //  WHICH IS THE PROPERTY OF MENTOR GRAPHICS CORPORATION OR ITS
# //  LICENSORS AND IS SUBJECT TO LICENSE TERMS.
# //
# Loading sv_std.std
# Loading work.test_counter(fast)
# ** Warning: (vsim-8492) The -assertdebug option was specified but there are no accessible objects.
# ** Warning: (vsim-8634) Code was not compiled with coverage options.
#  run -all
#          5  rst_=1 clk=1 count_enb=0 ld_cnt_=1 updn_cnt=1 DIN=x DOUT=x
#         15  rst_=0 clk=1 count_enb=0 ld_cnt_=1 updn_cnt=1 DIN=x DOUT=0
#         25  rst_=0 clk=1 count_enb=0 ld_cnt_=1 updn_cnt=1 DIN=x DOUT=0
#         35  rst_=1 clk=1 count_enb=0 ld_cnt_=1 updn_cnt=1 DIN=x DOUT=0
#         45  rst_=1 clk=1 count_enb=0 ld_cnt_=0 updn_cnt=1 DIN=0 DOUT=0
#         55  rst_=1 clk=1 count_enb=0 ld_cnt_=0 updn_cnt=1 DIN=0 DOUT=0
#         65  rst_=1 clk=1 count_enb=0 ld_cnt_=0 updn_cnt=1 DIN=100 DOUT=0
#         75  rst_=1 clk=1 count_enb=1 ld_cnt_=1 updn_cnt=1 DIN=100 DOUT=100
#         85  rst_=1 clk=1 count_enb=1 ld_cnt_=1 updn_cnt=1 DIN=100 DOUT=99
#         85  		COUNTER COUNT CHECK FAIL:: UPDOWN COUNT using $past 
# 
#         95  rst_=1 clk=1 count_enb=1 ld_cnt_=1 updn_cnt=1 DIN=100 DOUT=98
#         95  		COUNTER COUNT CHECK FAIL:: UPDOWN COUNT using $past 
# 
#        105  rst_=1 clk=1 count_enb=1 ld_cnt_=1 updn_cnt=1 DIN=100 DOUT=97
#        105  		COUNTER COUNT CHECK FAIL:: UPDOWN COUNT using $past 
# 
#        115  rst_=1 clk=1 count_enb=1 ld_cnt_=1 updn_cnt=1 DIN=100 DOUT=96
#        115  		COUNTER COUNT CHECK FAIL:: UPDOWN COUNT using $past 
# 
#        125  rst_=1 clk=1 count_enb=1 ld_cnt_=1 updn_cnt=1 DIN=100 DOUT=95
#        125  		COUNTER COUNT CHECK FAIL:: UPDOWN COUNT using $past 
# 
#        135  rst_=1 clk=1 count_enb=1 ld_cnt_=1 updn_cnt=1 DIN=100 DOUT=94
#        135  		COUNTER COUNT CHECK FAIL:: UPDOWN COUNT using $past 
# 
#        145  rst_=1 clk=1 count_enb=1 ld_cnt_=1 updn_cnt=1 DIN=100 DOUT=93
#        145  		COUNTER COUNT CHECK FAIL:: UPDOWN COUNT using $past 
# 
#        155  rst_=1 clk=1 count_enb=1 ld_cnt_=1 updn_cnt=1 DIN=100 DOUT=92
#        155  		COUNTER COUNT CHECK FAIL:: UPDOWN COUNT using $past 
# 
#        165  rst_=1 clk=1 count_enb=1 ld_cnt_=1 updn_cnt=1 DIN=100 DOUT=91
#        165  		COUNTER COUNT CHECK FAIL:: UPDOWN COUNT using $past 
# 
#        175  rst_=1 clk=1 count_enb=0 ld_cnt_=1 updn_cnt=1 DIN=100 DOUT=90
#        175  		COUNTER COUNT CHECK FAIL:: UPDOWN COUNT using $past 
# 
#        185  rst_=1 clk=1 count_enb=0 ld_cnt_=1 updn_cnt=1 DIN=100 DOUT=90
#        195  rst_=1 clk=1 count_enb=0 ld_cnt_=0 updn_cnt=1 DIN=100 DOUT=90
#        205  rst_=1 clk=1 count_enb=1 ld_cnt_=1 updn_cnt=0 DIN=100 DOUT=100
#        215  rst_=1 clk=1 count_enb=1 ld_cnt_=1 updn_cnt=0 DIN=100 DOUT=101
#        215  		COUNTER COUNT CHECK FAIL:: UPDOWN COUNT using $past 
# 
#        225  rst_=1 clk=1 count_enb=1 ld_cnt_=1 updn_cnt=0 DIN=100 DOUT=102
#        225  		COUNTER COUNT CHECK FAIL:: UPDOWN COUNT using $past 
# 
#        235  rst_=1 clk=1 count_enb=1 ld_cnt_=1 updn_cnt=0 DIN=100 DOUT=103
#        235  		COUNTER COUNT CHECK FAIL:: UPDOWN COUNT using $past 
# 
#        245  rst_=1 clk=1 count_enb=1 ld_cnt_=1 updn_cnt=0 DIN=100 DOUT=104
#        245  		COUNTER COUNT CHECK FAIL:: UPDOWN COUNT using $past 
# 
#        255  rst_=1 clk=1 count_enb=1 ld_cnt_=1 updn_cnt=0 DIN=100 DOUT=105
#        255  		COUNTER COUNT CHECK FAIL:: UPDOWN COUNT using $past 
# 
#        265  rst_=1 clk=1 count_enb=1 ld_cnt_=1 updn_cnt=0 DIN=100 DOUT=106
#        265  		COUNTER COUNT CHECK FAIL:: UPDOWN COUNT using $past 
# 
#        275  rst_=1 clk=1 count_enb=1 ld_cnt_=1 updn_cnt=0 DIN=100 DOUT=107
#        275  		COUNTER COUNT CHECK FAIL:: UPDOWN COUNT using $past 
# 
#        285  rst_=1 clk=1 count_enb=1 ld_cnt_=1 updn_cnt=0 DIN=100 DOUT=108
#        285  		COUNTER COUNT CHECK FAIL:: UPDOWN COUNT using $past 
# 
#        295  rst_=1 clk=1 count_enb=1 ld_cnt_=1 updn_cnt=0 DIN=100 DOUT=109
#        295  		COUNTER COUNT CHECK FAIL:: UPDOWN COUNT using $past 
# 
#        305  rst_=1 clk=1 count_enb=0 ld_cnt_=1 updn_cnt=0 DIN=100 DOUT=110
#        305  		COUNTER COUNT CHECK FAIL:: UPDOWN COUNT using $past 
# 
#        315  rst_=1 clk=1 count_enb=0 ld_cnt_=1 updn_cnt=0 DIN=100 DOUT=110
#        325  rst_=1 clk=1 count_enb=0 ld_cnt_=1 updn_cnt=0 DIN=100 DOUT=110
# ** Note: Data structure takes 4685872 bytes of memory
#          Process time 0.00 seconds
#          $finish    : test_counter.sv(29)
#    Time: 325 ns  Iteration: 1  Instance: /test_counter
# End time: 17:10:56 on Feb 06,2015, Elapsed time: 0:00:03
# Errors: 0, Warnings: 2
